<?xml version="1.0" encoding="utf-8"?>
<!-- Generator: Adobe Illustrator 16.0.0, SVG Export Plug-In . SVG Version: 6.00 Build 0)  -->
<!DOCTYPE svg PUBLIC "-//W3C//DTD SVG 1.1//EN" "http://www.w3.org/Graphics/SVG/1.1/DTD/svg11.dtd">
<svg version="1.1" id="Capa_1" xmlns="http://www.w3.org/2000/svg" xmlns:xlink="http://www.w3.org/1999/xlink" x="0px" y="0px"
	 width="84px" height="63px" viewBox="110 10.5 84 63" enable-background="new 110 10.5 84 63" xml:space="preserve">
<g>
	<g id="right_x5F_quote_x5F_alt">
		<g>
			<polygon fill="#FCFCFC" points="110,10.5 110,73.5 141.5,42 141.5,10.5 			"/>
			<polygon fill="#FCFCFC" points="162.5,10.5 162.5,73.5 194,42 194,10.5 			"/>
		</g>
	</g>
</g>
</svg>
